…
```
## [1] TRUE
```

### Retrieve data from the datastore via the API


```r
ds_search_all(resource_id = metadata_rs$uuid, as = 'df') %>%
  select(item_name, item_code, price)
```


```
## # A tibble: 100 x 3
##    item_name                                          item_code price
##    <chr>                                              <chr>     <chr>
##  1 Men's haircut, barber shop                         111211101 50   
##  2 Sardines, tinned, with skin, in vegetable oil, WKB 110113201 29.3 
##  3 Broken rice, 25%, BNR                              110111106 12.49
##  4 Men's shirt, WKB-M                                 110312103 349  
##  5 Vacuum cleaner, WKB-M                              110531111 1799 
##  6 "Instant coffee, NESCAFE Classic "                 110121102 112  
##  7 Petrol, Superplus                                  110722103 19.99
##  8 Football (soccer ball), WKB                        110931110 499  
##  9 Men's haircut, barber shop                         111211101 70   
## 10 Bath towel, large, WKB                             110521103 171  
## # ... with 90 more rows
```
